How to do specification curve analyses in R: Introducing ‘specr’ – Philipp K. Masur
…
Define analytical choices and run the analyses

The main function of the package is run_specs(). We need to provide the data set, and all analytical choices that we deem resonable. In this cases, we investigate the influence of different dependent and independent variables, various control variables, as well as how subsets of group1 affect the results.

# Run specification curve analysis
results <- run_specs(df = example_data, 
                     y = c("y1", "y2"), 
                     x = c("x1", "x2"), 
                     model = c("lm"), 
                     controls = c("c1", "c2"), 
                     subsets = list(group1 = unique(example_data$group1)))

# Check
results
## # A tibble: 48 x 12
##    x     y     model controls estimate std.error statistic  p.value
##    <chr> <chr> <chr> <chr>       <dbl>     <dbl>     <dbl>    <dbl>
##  1 x1    y1    lm    c1 + c2    4.95       0.525    9.43   3.11e-18
##  2 x2    y1    lm    c1 + c2    6.83       0.321   21.3    1.20e-57
##  3 x1    y2    lm    c1 + c2   -0.227      0.373   -0.607  5.44e- 1
##  4 x2    y2    lm    c1 + c2    0.985      0.324    3.04   2.62e- 3
##  5 x1    y1    lm    c1         5.53       0.794    6.97   2.95e-11
##  6 x2    y1    lm    c1         8.07       0.557   14.5    6.90e-35
##  7 x1    y2    lm    c1         0.0461     0.466    0.0989 9.21e- 1
##  8 x2    y2    lm    c1         1.61       0.394    4.10   5.72e- 5
##  9 x1    y1    lm    c2         5.15       0.625    8.24   9.95e-15
## 10 x2    y1    lm    c2         6.50       0.466   13.9    5.38e-33
## # … with 38 more rows, and 4 more variables: conf.low <dbl>,
## #   conf.high <dbl>, obs <int>, subsets <chr>
…
